projects/hvc-ltc4421-testing/TEK0015.CSV

Record Length,2.500000e+03,,  -0.000500000000,  10.40000,
Sample Interval,2.000000e-06,,  -0.000498000000,  10.40000,
Trigger Point,2.500000000000e+02,,  -0.000496000000,  10.40000,
,,,  -0.000494000000,  10.40000,
,,,  -0.000492000000,  10.40000,
,,,  -0.000490000000,  10.20000,
Source,CH2,,  -0.000488000000,  10.40000,
Vertical Units,V,,  -0.000486000000,  10.40000,
Vertical Scale,5.000000e+00,,  -0.000484000000,  10.40000,
Vertical Offset,-1.500000e+01,,  -0.000482000000,  10.40000,
Horizontal Units,s,,  -0.000480000000,  10.40000,
Horizontal Scale,5.000000e-04,,  -0.000478000000,  10.40000,
Pt Fmt,Y,,  -0.000476000000,  10.40000,
Yzero,0.000000e+00,,  -0.000474000000,  10.40000,
Probe Atten,1.000000e+01,,  -0.000472000000,  10.20000,
Model Number,TBS1104,,  -0.000470000000,  10.40000,
Serial Number,C021338,,  -0.000468000000,  10.60000,
Firmware Version,FV:v26.05,,  -0.000466000000,  10.40000,
,,,-00.000464000000,  10.40000,
,,,-00.000462000000,  10.40000,
,,,-00.000460000000,  10.40000,
,,,-00.000458000000,  10.60000,
,,,-00.000456000000,  10.40000,
,,,-00.000454000000,  10.60000,
,,,-00.000452000000,  10.40000,
,,,-00.000450000000,  10.40000,
,,,-00.000448000000,  10.40000,
,,,-00.000446000000,  10.40000,
,,,-00.000444000000,  10.40000,
,,,-00.000442000000,  10.40000,
,,,-00.000440000000,  10.40000,
,,,-00.000438000000,  10.40000,
,,,-00.000436000000,  10.40000,
,,,-00.000434000000,  10.60000,
,,,-00.000432000000,  10.60000,
,,,-00.000430000000,  10.40000,
,,,-00.000428000000,  10.20000,
,,,-00.000426000000,  10.40000,
,,,-00.000424000000,  10.40000,
,,,-00.000422000000,  10.20000,
,,,-00.000420000000,  10.20000,
,,,-00.000418000000,  10.40000,
,,,-00.000416000000,  10.40000,
,,,-00.000414000000,  10.40000,
,,,-00.000412000000,  10.20000,
,,,-00.000410000000,  10.40000,
,,,-00.000408000000,  10.40000,
,,,-00.000406000000,  10.40000,
,,,-00.000404000000,  10.40000,
,,,-00.000402000000,  10.40000,
,,,-00.000400000000,  10.40000,
,,,-00.000398000000,  10.20000,
,,,-00.000396000000,  10.40000,
,,,-00.000394000000,  10.20000,
,,,-00.000392000000,  10.40000,
,,,-00.000390000000,  10.40000,
,,,-00.000388000000,  10.40000,
,,,-00.000386000000,  10.60000,
,,,-00.000384000000,  10.60000,
,,,-00.000382000000,  10.20000,
,,,-00.000380000000,  10.40000,
,,,-00.000378000000,  10.60000,
,,,-00.000376000000,  10.60000,
,,,-00.000374000000,  10.40000,
,,,-00.000372000000,  10.40000,
,,,-00.000370000000,  10.40000,
,,,-00.000368000000,  10.40000,
,,,-00.000366000000,  10.40000,
,,,-00.000364000000,  10.40000,
,,,-00.000362000000,  10.60000,
,,,-00.000360000000,  10.40000,
,,,-00.000358000000,  10.40000,
,,,-00.000356000000,  10.60000,
,,,-00.000354000000,  10.60000,
,,,-00.000352000000,  10.40000,
,,,-00.000350000000,  10.40000,
,,,-00.000348000000,  10.40000,
,,,-00.000346000000,  10.20000,
,,,-00.000344000000,  10.60000,
,,,-00.000342000000,  10.40000,
,,,-00.000340000000,  10.40000,
,,,-00.000338000000,  10.40000,
,,,-00.000336000000,  10.40000,
,,,-00.000334000000,  10.60000,
,,,-00.000332000000,  10.60000,
,,,-00.000330000000,  10.40000,
,,,-00.000328000000,  10.40000,
,,,-00.000326000000,  10.40000,
,,,-00.000324000000,  10.60000,
,,,-00.000322000000,  10.40000,
,,,-00.000320000000,  10.40000,
,,,-00.000318000000,  10.40000,
,,,-00.000316000000,  10.40000,
,,,-00.000314000000,  10.40000,
,,,-00.000312000000,  10.40000,
,,,-00.000310000000,  10.40000,
,,,-00.000308000000,  10.40000,
,,,-00.000306000000,  10.40000,
,,,-00.000304000000,  10.40000,
,,,-00.000302000000,  10.40000,
,,,-00.000300000000,  10.20000,
,,,-00.000298000000,  10.40000,
,,,-00.000296000000,  10.40000,
,,,-00.000294000000,  10.40000,
,,,-00.000292000000,  10.40000,
,,,-00.000290000000,  10.40000,
,,,-00.000288000000,  10.40000,
,,,-00.000286000000,  10.20000,
,,,-00.000284000000,  10.20000,
,,,-00.000282000000,  10.40000,
,,,-00.000280000000,  10.40000,
,,,-00.000278000000,  10.40000,
,,,-00.000276000000,  10.40000,
,,,-00.000274000000,  10.40000,
,,,-00.000272000000,  10.40000,
,,,-00.000270000000,  10.40000,
,,,-00.000268000000,  10.40000,
,,,-00.000266000000,  10.60000,
,,,-00.000264000000,  10.40000,
,,,-00.000262000000,  10.40000,
,,,-00.000260000000,  10.60000,
,,,-00.000258000000,  10.40000,
,,,-00.000256000000,  10.40000,
,,,-00.000254000000,  10.40000,
,,,-00.000252000000,  10.40000,
,,,-00.000250000000,  10.40000,
,,,-00.000248000000,  10.60000,
,,,-00.000246000000,  10.40000,
,,,-00.000244000000,  10.40000,
,,,-00.000242000000,  10.40000,
,,,-00.000240000000,  10.40000,
,,,-00.000238000000,  10.40000,
,,,-00.000236000000,  10.40000,
,,,-00.000234000000,  10.40000,
,,,-00.000232000000,  10.20000,
,,,-00.000230000000,  10.40000,
,,,-00.000228000000,  10.40000,
,,,-00.000226000000,  10.40000,
,,,-00.000224000000,  10.40000,
,,,-00.000222000000,  10.40000,
,,,-00.000220000000,  10.40000,
,,,-00.000218000000,  10.40000,
,,,-00.000216000000,  10.40000,
,,,-00.000214000000,  10.40000,
,,,-00.000212000000,  10.40000,
,,,-00.000210000000,  10.60000,
,,,-00.000208000000,  10.40000,
,,,-00.000206000000,  10.40000,
,,,-00.000204000000,  10.40000,
,,,-00.000202000000,  10.40000,
,,,-00.000200000000,  10.40000,
,,,-00.000198000000,  10.40000,
,,,-00.000196000000,  10.40000,
,,,-00.000194000000,  10.20000,
,,,-00.000192000000,  10.40000,
,,,-00.000190000000,  10.40000,
,,,-00.000188000000,  10.40000,
,,,-00.000186000000,  10.40000,
,,,-00.000184000000,  10.20000,
,,,-00.000182000000,  10.40000,
,,,-00.000180000000,  10.40000,
,,,-00.000178000000,  10.40000,
,,,-00.000176000000,  10.40000,
,,,-00.000174000000,  10.40000,
,,,-00.000172000000,  10.40000,
,,,-00.000170000000,  10.40000,
,,,-00.000168000000,  10.20000,
,,,-00.000166000000,  10.40000,
,,,-00.000164000000,  10.40000,
,,,-00.000162000000,  10.40000,
,,,-00.000160000000,  10.40000,
,,,-00.000158000000,  10.40000,
,,,-00.000156000000,  10.40000,
,,,-00.000154000000,  10.40000,
,,,-00.000152000000,  10.40000,
,,,-00.000150000000,  10.40000,
,,,-00.000148000000,  10.40000,
,,,-00.000146000000,  10.40000,
,,,-00.000144000000,  10.40000,
,,,-00.000142000000,  10.40000,
,,,-00.000140000000,  10.40000,
,,,-00.000138000000,  10.40000,
,,,-00.000136000000,  10.40000,
,,,-00.000134000000,  10.40000,
,,,-00.000132000000,  10.20000,
,,,-00.000130000000,  10.40000,
,,,-00.000128000000,  10.40000,
,,,-00.000126000000,  10.60000,
,,,-00.000124000000,  10.40000,
,,,-00.000122000000,  10.40000,
,,,-00.000120000000,  10.40000,
,,,-00.000118000000,  10.40000,
,,,-00.000116000000,  10.40000,
,,,-00.000114000000,  10.40000,
,,,-00.000112000000,  10.40000,
,,,-00.000110000000,  10.40000,
,,,-00.000108000000,  10.40000,
,,,-00.000106000000,  10.40000,
,,,-00.000104000000,  10.40000,
,,,-00.000102000000,  10.40000,
,,,-00.000100000000,  10.40000,
,,,-00.000098000000,  10.20000,
,,,-00.000096000000,  10.40000,
,,,-00.000094000000,  10.40000,
,,,-00.000092000000,  10.40000,
,,,-00.000090000000,  10.20000,
,,,-00.000088000000,  10.40000,
,,,-00.000086000000,  10.40000,
,,,-00.000084000000,  10.40000,
,,,-00.000082000000,  10.40000,
,,,-00.000080000000,  10.40000,
,,,-00.000078000000,  10.40000,
,,,-00.000076000000,  10.40000,
,,,-00.000074000000,  10.40000,
,,,-00.000072000000,  10.40000,
,,,-00.000070000000,  10.40000,
,,,-00.000068000000,  10.40000,
,,,-00.000066000000,  10.40000,
,,,-00.000064000000,  10.60000,
,,,-00.000062000000,  10.40000,
,,,-00.000060000000,  10.60000,
,,,-00.000058000000,  10.40000,
,,,-00.000056000000,  10.40000,
,,,-00.000054000000,  10.60000,
,,,-00.000052000000,  10.40000,
,,,-00.000050000000,  10.40000,
,,,-00.000048000000,  10.40000,
,,,-00.000046000000,  10.40000,
,,,-00.000044000000,  10.40000,
,,,-00.000042000000,  10.40000,
,,,-00.000040000000,  10.60000,
,,,-00.000038000000,  10.40000,
,,,-00.000036000000,  10.20000,
,,,-00.000034000000,  10.40000,
,,,-00.000032000000,  10.60000,
,,,-00.000030000000,  10.40000,
,,,-00.000028000000,  10.40000,
,,,-00.000026000000,  10.40000,
,,,-00.000024000000,  10.40000,
,,,-00.000022000000,  10.40000,
,,,-00.000020000000,  10.40000,
,,,-00.000018000000,  10.40000,
,,,-00.000016000000,  10.40000,
,,,-00.000014000000,  10.20000,
,,,-00.000012000000,  10.40000,
,,,-00.000010000000,  10.40000,
,,,-00.000008000000,  10.40000,
,,,-00.000006000000,  10.60000,
,,,-00.000004000000,  10.40000,
,,,-00.000002000000,  10.60000,
,,,-00.000000000000,  10.40000,
,,,00.000002000000,   9.20000,
,,,00.000004000000,   5.60000,
,,,00.000006000000,   4.80000,
,,,00.000008000000,  20.00000,
,,,00.000010000000,  12.60000,
,,,00.000012000000,  10.40000,
,,,00.000014000000,  10.60000,
,,,00.000016000000,   9.00000,
,,,00.000018000000,   5.60000,
,,,00.000020000000,   6.40000,
,,,00.000022000000,   8.20000,
,,,00.000024000000,   9.80000,
,,,00.000026000000,  10.20000,
,,,00.000028000000,  10.40000,
,,,00.000030000000,   7.60000,
,,,00.000032000000,   5.40000,
,,,00.000034000000,  14.40000,
,,,00.000036000000,   7.80000,
,,,00.000038000000,   9.20000,
,,,00.000040000000,  10.60000,
,,,00.000042000000,  10.20000,
,,,00.000044000000,   7.00000,
,,,00.000046000000,   5.60000,
,,,00.000048000000,  23.60000,
,,,00.000050000000,  12.20000,
,,,00.000052000000,  10.20000,
,,,00.000054000000,  11.20000,
,,,00.000056000000,   9.80000,
,,,00.000058000000,   6.80000,
,,,00.000060000000,   5.40000,
,,,00.000062000000,  23.60000,
,,,00.000064000000,  13.60000,
,,,00.000066000000,  10.60000,
,,,00.000068000000,  11.40000,
,,,00.000070000000,   9.20000,
,,,00.000072000000,   6.60000,
,,,00.000074000000,   6.00000,
,,,00.000076000000,  15.40000,
,,,00.000078000000,  12.20000,
,,,00.000080000000,  10.80000,
,,,00.000082000000,  11.40000,
,,,00.000084000000,   8.60000,
,,,00.000086000000,   6.80000,
,,,00.000088000000,   9.00000,
,,,00.000090000000,   7.20000,
,,,00.000092000000,  10.20000,
,,,00.000094000000,  11.00000,
,,,00.000096000000,  10.40000,
,,,00.000098000000,   7.60000,
,,,00.000100000000,   6.80000,
,,,00.000102000000,  22.80000,
,,,00.000104000000,  12.60000,
,,,00.000106000000,  10.40000,
,,,00.000108000000,  11.40000,
,,,00.000110000000,   9.40000,
,,,00.000112000000,   7.40000,
,,,00.000114000000,   6.80000,
,,,00.000116000000,  17.80000,
,,,00.000118000000,  13.00000,
,,,00.000120000000,  10.80000,
,,,00.000122000000,  11.20000,
,,,00.000124000000,   8.60000,
,,,00.000126000000,   7.40000,
,,,00.000128000000,   8.80000,
,,,00.000130000000,   7.20000,
,,,00.000132000000,  10.00000,
,,,00.000134000000,  10.60000,
,,,00.000136000000,  10.60000,
,,,00.000138000000,   8.60000,
,,,00.000140000000,   7.60000,
,,,00.000142000000,  12.60000,
,,,00.000144000000,   8.40000,
,,,00.000146000000,   9.40000,
,,,00.000148000000,  10.80000,
,,,00.000150000000,  10.20000,
,,,00.000152000000,   8.60000,
,,,00.000154000000,   7.40000,
,,,00.000156000000,  14.80000,
,,,00.000158000000,   9.60000,
,,,00.000160000000,   9.60000,
,,,00.000162000000,  10.80000,
,,,00.000164000000,  10.00000,
,,,00.000166000000,   8.80000,
,,,00.000168000000,   7.80000,
,,,00.000170000000,  12.00000,
,,,00.000172000000,   8.40000,
,,,00.000174000000,   9.40000,
,,,00.000176000000,  10.80000,
,,,00.000178000000,  10.00000,
,,,00.000180000000,   9.00000,
,,,00.000182000000,   8.20000,
,,,00.000184000000,   7.40000,
,,,00.000186000000,   9.60000,
,,,00.000188000000,  10.20000,
,,,00.000190000000,  10.40000,
,,,00.000192000000,  10.40000,
,,,00.000194000000,   9.60000,
,,,00.000196000000,   9.00000,
,,,00.000198000000,   8.20000,
,,,00.000200000000,  11.20000,
,,,00.000202000000,   8.00000,
,,,00.000204000000,   9.40000,
,,,00.000206000000,  10.80000,
,,,00.000208000000,  10.20000,
,,,00.000210000000,   9.80000,
,,,00.000212000000,   9.00000,
,,,00.000214000000,   8.40000,
,,,00.000216000000,   8.60000,
,,,00.000218000000,   8.00000,
,,,00.000220000000,  10.00000,
,,,00.000222000000,  10.80000,
,,,00.000224000000,  10.80000,
,,,00.000226000000,  10.20000,
,,,00.000228000000,   9.60000,
,,,00.000230000000,   8.80000,
,,,00.000232000000,   8.40000,
,,,00.000234000000,  20.20000,
,,,00.000236000000,  12.80000,
,,,00.000238000000,  10.80000,
,,,00.000240000000,  11.00000,
,,,00.000242000000,  10.40000,
,,,00.000244000000,  10.00000,
,,,00.000246000000,   9.20000,
,,,00.000248000000,   9.00000,
,,,00.000250000000,   8.80000,
,,,00.000252000000,  17.00000,
,,,00.000254000000,  12.20000,
,,,00.000256000000,  10.60000,
,,,00.000258000000,  11.00000,
,,,00.000260000000,  10.20000,
,,,00.000262000000,  10.20000,
,,,00.000264000000,   9.40000,
,,,00.000266000000,   9.00000,
,,,00.000268000000,   8.60000,
,,,00.000270000000,  14.40000,
,,,00.000272000000,  10.20000,
,,,00.000274000000,  10.00000,
,,,00.000276000000,  10.60000,
,,,00.000278000000,  10.20000,
,,,00.000280000000,  10.40000,
,,,00.000282000000,  10.00000,
,,,00.000284000000,   9.40000,
,,,00.000286000000,   9.00000,
,,,00.000288000000,   8.80000,
,,,00.000290000000,   9.60000,
,,,00.000292000000,   8.00000,
,,,00.000294000000,   9.80000,
,,,00.000296000000,  10.40000,
,,,00.000298000000,  10.40000,
,,,00.000300000000,  10.20000,
,,,00.000302000000,  10.20000,
,,,00.000304000000,   9.80000,
,,,00.000306000000,   9.60000,
,,,00.000308000000,   9.20000,
,,,00.000310000000,   9.00000,
,,,00.000312000000,   8.80000,
,,,00.000314000000,  15.80000,
,,,00.000316000000,  11.00000,
,,,00.000318000000,  10.20000,
,,,00.000320000000,  10.80000,
,,,00.000322000000,  10.20000,
,,,00.000324000000,  10.40000,
,,,00.000326000000,  10.20000,
,,,00.000328000000,  10.00000,
,,,00.000330000000,   9.60000,
,,,00.000332000000,   9.60000,
,,,00.000334000000,   9.60000,
,,,00.000336000000,   9.40000,
,,,00.000338000000,   9.40000,
,,,00.000340000000,   9.20000,
,,,00.000342000000,   9.40000,
,,,00.000344000000,  11.00000,
,,,00.000346000000,  10.80000,
,,,00.000348000000,  10.60000,
,,,00.000350000000,  10.80000,
,,,00.000352000000,  10.40000,
,,,00.000354000000,  10.80000,
,,,00.000356000000,  10.20000,
,,,00.000358000000,  10.20000,
,,,00.000360000000,  10.00000,
,,,00.000362000000,  10.00000,
,,,00.000364000000,  10.00000,
,,,00.000366000000,   9.60000,
,,,00.000368000000,   9.80000,
,,,00.000370000000,   9.80000,
,,,00.000372000000,   9.60000,
,,,00.000374000000,   9.60000,
,,,00.000376000000,   9.40000,
,,,00.000378000000,   9.60000,
,,,00.000380000000,   9.60000,
,,,00.000382000000,   9.60000,
,,,00.000384000000,   9.80000,
,,,00.000386000000,   9.80000,
,,,00.000388000000,   9.60000,
,,,00.000390000000,   9.80000,
,,,00.000392000000,  10.00000,
,,,00.000394000000,  10.00000,
,,,00.000396000000,   9.60000,
,,,00.000398000000,   9.80000,
,,,00.000400000000,   9.80000,
,,,00.000402000000,  10.00000,
,,,00.000404000000,  10.00000,
,,,00.000406000000,  10.00000,
,,,00.000408000000,  10.00000,
,,,00.000410000000,  10.00000,
,,,00.000412000000,  10.00000,
,,,00.000414000000,  10.00000,
,,,00.000416000000,  10.00000,
,,,00.000418000000,  10.20000,
,,,00.000420000000,  10.20000,
,,,00.000422000000,  10.20000,
,,,00.000424000000,  10.20000,
,,,00.000426000000,  10.20000,
,,,00.000428000000,  10.20000,
,,,00.000430000000,  10.20000,
,,,00.000432000000,  10.20000,
,,,00.000434000000,  10.40000,
,,,00.000436000000,  10.40000,
,,,00.000438000000,  10.40000,
,,,00.000440000000,  10.40000,
,,,00.000442000000,  10.40000,
,,,00.000444000000,  10.60000,
,,,00.000446000000,  10.40000,
,,,00.000448000000,  10.40000,
,,,00.000450000000,  10.40000,
,,,00.000452000000,  10.40000,
,,,00.000454000000,  10.60000,
,,,00.000456000000,  10.40000,
,,,00.000458000000,  10.60000,
,,,00.000460000000,  10.80000,
,,,00.000462000000,  10.40000,
,,,00.000464000000,  10.40000,
,,,00.000466000000,  10.40000,
,,,00.000468000000,  10.40000,
,,,00.000470000000,  10.60000,
,,,00.000472000000,  10.40000,
,,,00.000474000000,  10.40000,
,,,00.000476000000,  10.60000,
,,,00.000478000000,  10.60000,
,,,00.000480000000,  10.60000,
,,,00.000482000000,  10.40000,
,,,00.000484000000,  10.60000,
,,,00.000486000000,  10.60000,
,,,00.000488000000,  10.60000,
,,,00.000490000000,  10.60000,
,,,00.000492000000,  10.80000,
,,,00.000494000000,  10.40000,
,,,00.000496000000,  10.60000,
,,,00.000498000000,  10.60000,
,,,00.000500000000,  10.60000,
,,,00.000502000000,  10.60000,
,,,00.000504000000,  10.40000,
,,,00.000506000000,  10.60000,
,,,00.000508000000,  10.60000,
,,,00.000510000000,  10.40000,
,,,00.000512000000,  10.40000,
,,,00.000514000000,  10.40000,
,,,00.000516000000,  10.40000,
,,,00.000518000000,  10.60000,
,,,00.000520000000,  10.80000,
,,,00.000522000000,  10.60000,
,,,00.000524000000,  10.40000,
,,,00.000526000000,  10.60000,
,,,00.000528000000,  10.40000,
,,,00.000530000000,  10.60000,
,,,00.000532000000,  10.60000,
,,,00.000534000000,  10.80000,
,,,00.000536000000,  10.40000,
,,,00.000538000000,  10.60000,
,,,00.000540000000,  10.60000,
,,,00.000542000000,  10.60000,
,,,00.000544000000,  10.60000,
,,,00.000546000000,  10.40000,
,,,00.000548000000,  10.60000,
,,,00.000550000000,  10.80000,
,,,00.000552000000,  10.60000,
,,,00.000554000000,  10.80000,
,,,00.000556000000,  10.60000,
,,,00.000558000000,  10.60000,
,,,00.000560000000,  10.80000,
,,,00.000562000000,  10.60000,
,,,00.000564000000,  10.40000,
,,,00.000566000000,  10.60000,
,,,00.000568000000,  10.60000,
,,,00.000570000000,  10.40000,
,,,00.000572000000,  10.60000,
,,,00.000574000000,  10.60000,
,,,00.000576000000,  10.40000,
,,,00.000578000000,  10.60000,
,,,00.000580000000,  10.80000,
,,,00.000582000000,  10.60000,
,,,00.000584000000,  10.60000,
,,,00.000586000000,  10.60000,
,,,00.000588000000,  10.60000,
,,,00.000590000000,  10.60000,
,,,00.000592000000,  10.60000,
,,,00.000594000000,  10.60000,
,,,00.000596000000,  10.60000,
,,,00.000598000000,  10.60000,
,,,00.000600000000,  10.80000,
,,,00.000602000000,  10.60000,
,,,00.000604000000,  10.80000,
,,,00.000606000000,  10.60000,
,,,00.000608000000,  10.60000,
,,,00.000610000000,  10.60000,
,,,00.000612000000,  10.60000,
,,,00.000614000000,  10.60000,
,,,00.000616000000,  10.60000,
,,,00.000618000000,  10.80000,
,,,00.000620000000,  10.40000,
,,,00.000622000000,  10.60000,
,,,00.000624000000,  10.60000,
,,,00.000626000000,  10.60000,
,,,00.000628000000,  10.60000,
,,,00.000630000000,  10.40000,
,,,00.000632000000,  10.60000,
,,,00.000634000000,  10.80000,
,,,00.000636000000,  10.60000,
,,,00.000638000000,  10.60000,
,,,00.000640000000,  10.60000,
,,,00.000642000000,  10.20000,
,,,00.000644000000,  10.60000,
,,,00.000646000000,  10.40000,
,,,00.000648000000,  10.60000,
,,,00.000650000000,  10.40000,
,,,00.000652000000,  10.60000,
,,,00.000654000000,  10.40000,
,,,00.000656000000,  10.80000,
,,,00.000658000000,  10.60000,
,,,00.000660000000,  11.00000,
,,,00.000662000000,  10.60000,
,,,00.000664000000,  10.60000,
,,,00.000666000000,  10.60000,
,,,00.000668000000,  10.80000,
,,,00.000670000000,  10.40000,
,,,00.000672000000,  10.80000,
,,,00.000674000000,  10.40000,
,,,00.000676000000,  10.60000,
,,,00.000678000000,  10.60000,
,,,00.000680000000,  10.40000,
,,,00.000682000000,  10.60000,
,,,00.000684000000,  10.60000,
,,,00.000686000000,  10.40000,
,,,00.000688000000,  10.60000,
,,,00.000690000000,  10.40000,
,,,00.000692000000,  10.60000,
,,,00.000694000000,  10.60000,
,,,00.000696000000,  10.60000,
,,,00.000698000000,  10.40000,
,,,00.000700000000,  10.60000,
,,,00.000702000000,  10.40000,
,,,00.000704000000,  10.40000,
,,,00.000706000000,  10.40000,
,,,00.000708000000,  10.60000,
,,,00.000710000000,  10.40000,
,,,00.000712000000,  10.60000,
,,,00.000714000000,  10.60000,
,,,00.000716000000,  10.40000,
,,,00.000718000000,  10.60000,
,,,00.000720000000,  10.60000,
,,,00.000722000000,  10.60000,
,,,00.000724000000,  10.60000,
,,,00.000726000000,  10.60000,
,,,00.000728000000,  10.60000,
,,,00.000730000000,  10.40000,
,,,00.000732000000,  10.80000,
,,,00.000734000000,  10.60000,
,,,00.000736000000,  10.40000,
,,,00.000738000000,  10.40000,
,,,00.000740000000,  10.60000,
,,,00.000742000000,  10.60000,
,,,00.000744000000,  10.60000,
,,,00.000746000000,  10.60000,
,,,00.000748000000,  10.60000,
,,,00.000750000000,  10.40000,
